{
  "name": "some_model_2",
  "version": "0.1",
  "runner": "mldev_k8s.servings.models.run.DefaultModelRunner",
  "loader": "mldev_k8s.servings.models.load",
  "model_implementation": {
    "model_entry": "servings.example_2_model",
    "model_loading_params": {},
    "requirements": {},
    "model_src_paths": [],
    "model_data_paths": []
  },
  "model_methods": [
    {
      "name": "invoke",
      "public_name": "public_invoke"
    }
  ]
}